com\zuitt\wdc044\services\JwtUserDetailsService.class
com\zuitt\wdc044\repositories\UserRepository.class
com\zuitt\wdc044\controllers\AuthController.class
com\zuitt\wdc044\models\JwtRequest.class
com\zuitt\wdc044\services\UserServiceImpl.class
com\zuitt\wdc044\services\UserService.class
com\zuitt\wdc044\services\PostServiceImpl.class
com\zuitt\wdc044\models\Post.class
com\zuitt\wdc044\models\JwtResponse.class
com\zuitt\wdc044\controllers\PostController.class
com\zuitt\wdc044\models\User.class
com\zuitt\wdc044\config\JwtAuthenticate.class
com\zuitt\wdc044\repositories\PostRepository.class
com\zuitt\wdc044\controllers\UserController.class
com\zuitt\wdc044\config\JwtToken.class
com\zuitt\wdc044\exceptions\UserException.class
com\zuitt\wdc044\Wdc044Application.class
com\zuitt\wdc044\config\WebSecurityConfig.class
com\zuitt\wdc044\ServletInitializer.class
com\zuitt\wdc044\config\JwtRequestFilter.class
com\zuitt\wdc044\services\PostService.class
